[gd_scene load_steps=3 format=2]

[ext_resource path="res://Scenes/ActionButton.tscn" type="PackedScene" id=1]
[ext_resource path="res://Scripts/HealActionButton.gd" type="Script" id=2]

[node name="HealActionButton" index="0" instance=ExtResource( 1 )]
text = "HEAL"
script = ExtResource( 2 )

[node name="HoverInfo" parent="." index="0"]
description = "Heal
Heals 5 health."
